<?xml version="1.0" encoding="UTF-8" standalone="no"?>
<!-- Created with Inkscape (http://www.inkscape.org/) -->

<svg
   xmlns:dc="http://purl.org/dc/elements/1.1/"
   xmlns:cc="http://creativecommons.org/ns#"
   xmlns:rdf="http://www.w3.org/1999/02/22-rdf-syntax-ns#"
   xmlns:svg="http://www.w3.org/2000/svg"
   xmlns="http://www.w3.org/2000/svg"
   xmlns:sodipodi="http://sodipodi.sourceforge.net/DTD/sodipodi-0.dtd"
   xmlns:inkscape="http://www.inkscape.org/namespaces/inkscape"
   width="60mm"
   height="25mm"
   viewBox="0 0 60 25"
   version="1.1"
   id="svg1424"
   sodipodi:docname="air_conditioner_2.svg"
   inkscape:version="0.92.4 (5da689c313, 2019-01-14)">
  <defs
     id="defs1418" />
  <sodipodi:namedview
     id="base"
     pagecolor="#ffffff"
     bordercolor="#666666"
     borderopacity="1.0"
     inkscape:pageopacity="0.0"
     inkscape:pageshadow="2"
     inkscape:zoom="0.9899495"
     inkscape:cx="486.48575"
     inkscape:cy="303.83418"
     inkscape:document-units="mm"
     inkscape:current-layer="layer1"
     showgrid="false"
     inkscape:window-width="1920"
     inkscape:window-height="1137"
     inkscape:window-x="-8"
     inkscape:window-y="-8"
     inkscape:window-maximized="1" />
  <metadata
     id="metadata1421">
    <rdf:RDF>
      <cc:Work
         rdf:about="">
        <dc:format>image/svg+xml</dc:format>
        <dc:type
           rdf:resource="http://purl.org/dc/dcmitype/StillImage" />
        <dc:title></dc:title>
      </cc:Work>
    </rdf:RDF>
  </metadata>
  <g
     inkscape:label="Layer 1"
     inkscape:groupmode="layer"
     id="layer1"
     transform="translate(0,-272)">
    <path
       id="path4571-2-9-0"
       d="m 46.835383,284.87874 c -0.281578,-0.0833 -0.596858,-0.0716 -0.865572,0.033 -0.268682,0.10465 -0.479264,0.29776 -0.579109,0.52962 -0.09979,0.23184 -0.08429,0.49189 0.04454,0.71217 0.12738,0.22383 0.362428,0.39836 0.644007,0.4817 0.279439,0.0827 0.594699,0.071 0.864145,-0.0353 0.268723,-0.10466 0.481445,-0.29712 0.580507,-0.5272 0.09906,-0.23011 0.08141,-0.49077 -0.04588,-0.71459 -0.128052,-0.22205 -0.363141,-0.39659 -0.64259,-0.4793 z"
       inkscape:connector-curvature="0"
       style="display:inline;stroke-width:0.2055265;fill:#212529;fill-opacity:1" />
    <g
       style="display:inline"
       id="g4625-2"
       transform="matrix(0.21917394,-1.9258808e-4,-8.3256184e-4,0.18747355,-127.783,139.08475)">
      <path
         id="path4617-6"
         d="M 776.84758,779.05312 H 651.08717 c -2.52226,0 -4.56694,1.75892 -4.56694,3.92866 0,2.16975 2.04468,3.92867 4.56694,3.92867 h 125.76041 c 2.52225,0 4.56694,-1.75892 4.56694,-3.92867 0,-2.16974 -2.04469,-3.92866 -4.56694,-3.92866 z"
         inkscape:connector-curvature="0"
         style="stroke-width:0.60511357;fill:#212529;fill-opacity:1" />
      <path
         style="opacity:1;fill:#f9f9f9;fill-opacity:1;stroke-width:0.25"
         d="m -165.1854,782.12406 c -0.0718,-0.0718 -44.41553,-0.12682 -98.54167,-0.12232 -95.69703,0.008 -98.41115,-0.005 -98.41115,-0.45575 0,-0.25516 0.20216,-0.64689 0.44926,-0.8705 0.41322,-0.37396 8.42478,-0.40743 99.875,-0.41718 94.82474,-0.0101 99.42556,0.01 99.42191,0.43033 -0.002,0.24251 -0.0888,0.57452 -0.19259,0.73779 -0.35182,0.55329 -2.2389,1.05949 -2.60076,0.69763 z"
         id="path9862-4"
         inkscape:connector-curvature="0"
         transform="matrix(1.0266531,0,0,1.0237789,992.02369,21.137398)" />
      <path
         style="opacity:1;fill:#f9f9f9;fill-opacity:1;stroke-width:0.25"
         d="m -264.26322,772.51747 -98,-0.1379 -0.0746,-0.88778 c -0.0526,-0.62522 0.0668,-1.01574 0.40347,-1.32045 0.45167,-0.40875 5.97683,-0.43202 99.91733,-0.42081 54.69157,0.007 99.53814,0.073 99.65903,0.1477 0.38591,0.23851 0.23596,1.53099 -0.2468,2.12717 -0.39359,0.48607 -0.71628,0.58042 -2.0625,0.60309 -0.87775,0.0148 -45.6959,-0.0352 -99.5959,-0.11102 z"
         id="path9864-6"
         inkscape:connector-curvature="0"
         transform="matrix(1.0266531,0,0,1.0237789,992.02369,21.137398)" />
      <path
         style="opacity:1;fill:#f9f9f9;fill-opacity:1;stroke-width:0.25"
         d="m -361.32572,761.82814 c -0.73556,-0.14168 -0.71108,-0.60863 0.0813,-1.55028 0.40853,-0.48551 1.07082,-0.88075 1.8125,-1.08168 0.93741,-0.25394 20.35236,-0.29187 98.08984,-0.19161 l 96.9211,0.125 0.75416,0.72255 c 0.41479,0.3974 0.86631,1.04427 1.00339,1.4375 l 0.24924,0.71495 -99.1745,-0.034 c -54.54597,-0.0187 -99.42762,-0.0828 -99.73699,-0.14238 z"
         id="path9866-0"
         inkscape:connector-curvature="0"
         transform="matrix(1.0266531,0,0,1.0237789,992.02369,21.137398)" />
      <path
         style="opacity:1;fill:#f9f9f9;fill-opacity:1;stroke-width:0.25"
         d="m -370.73529,781.68091 c -0.4204,-0.3074 -0.44121,-2.25657 -0.41437,-38.8125 0.0173,-23.62931 0.12061,-38.82665 0.26745,-39.36384 0.13156,-0.48125 0.4488,-1.19014 0.70499,-1.57531 l 0.46579,-0.70031 0.14178,1.95031 c 0.078,1.07267 0.32831,2.51544 0.55629,3.20616 0.91835,2.78241 3.78543,5.78757 6.61455,6.93311 l 1.38559,0.56104 97.875,0.0731 c 72.2504,0.0539 98.26553,-10e-4 99.36666,-0.21073 0.82042,-0.15609 2.03384,-0.55854 2.69648,-0.89433 3.51425,-1.7808 6.1532,-6.10951 6.20724,-10.18183 l 0.0204,-1.53617 0.74755,1.55349 c 0.64775,1.34609 0.7535,1.86341 0.79211,3.875 0.0245,1.27683 0.0165,18.77464 -0.0179,38.88401 -0.0665,38.90563 -0.006,37.08213 -1.20222,36.20782 -0.39027,-0.28524 -0.48051,-0.6401 -0.4609,-1.8125 0.16892,-10.10108 0.0519,-18.34005 -0.28092,-19.77507 -1.02577,-4.42305 -3.79908,-7.32928 -8.05176,-8.43767 -1.27105,-0.33128 -13.01454,-0.37525 -99.21383,-0.37143 -88.42417,0.004 -97.90148,0.0421 -99.125,0.3999 -3.54249,1.03582 -6.38322,4.06755 -7.57499,8.08432 -0.34245,1.15416 -0.40289,2.92635 -0.40289,11.8125 0,11.03503 0.0102,10.94064 -1.09707,10.13097 z m 183.78918,-32.81327 c 2.50886,-1.04827 3.69626,-3.8513 2.67095,-6.30519 -1.3955,-3.33992 -5.89555,-4.22039 -8.46056,-1.65538 -2.48463,2.48463 -1.50949,6.72661 1.85497,8.06935 0.94395,0.37673 2.90223,0.32259 3.93464,-0.10878 z m 13.25,0 c 1.86735,-0.78023 3.05789,-2.53333 3.05789,-4.50283 0,-5.32709 -7.52163,-6.85453 -9.77604,-1.98524 -1.86511,4.02844 2.50468,8.24857 6.71815,6.48807 z m -33.86768,-1.20083 c 0.44461,-0.18577 1.17225,-0.75219 1.61697,-1.2587 0.69913,-0.79627 0.8086,-1.10472 0.8086,-2.27854 0,-1.17382 -0.10947,-1.48227 -0.8086,-2.27854 -1.51731,-1.72813 3.83482,-1.59646 -64.89405,-1.59646 h -62.46871 l -1.08211,0.57223 c -1.57243,0.83152 -2.12153,1.68636 -2.12153,3.30277 0,1.57739 0.53981,2.45997 2.0235,3.30839 l 0.9765,0.55838 62.57053,0.004 c 51.99365,0.003 62.70717,-0.053 63.3789,-0.33365 z"
         id="path9868-5"
         inkscape:connector-curvature="0"
         transform="matrix(1.0266531,0,0,1.0237789,992.02369,21.137398)" />
      <path
         style="opacity:1;fill:#f9f9f9;fill-opacity:1;stroke-width:0.25"
         d="m -360.34026,705.74847 c -1.25614,-0.76585 -1.7859,-2.18635 -1.79247,-4.8064 l -0.005,-2.1875 h 99.85968 99.85968 l 0.16167,1.07806 c 0.18805,1.25404 -0.18821,3.57389 -0.75853,4.67677 -0.21823,0.42201 -0.75694,0.98689 -1.19714,1.25529 -0.79019,0.48181 -2.03683,0.48801 -98.05036,0.48801 -97.08194,0 -97.25143,-8.7e-4 -98.07704,-0.50423 z"
         id="path9870-6"
         inkscape:connector-curvature="0"
         transform="matrix(1.0266531,0,0,1.0237789,992.02369,21.137398)" />
    </g>
    <g
       style="display:inline;fill:#212529;fill-opacity:1"
       id="g4581-3-72"
       transform="matrix(0.1095061,0.02805187,-0.03322461,0.09300654,24.716476,266.66957)">
      <path
         style="stroke-width:1.03764212;fill:#212529;fill-opacity:1"
         d="M 260.87099,8.9274695 C 131.63242,48.49136 2.0920267,87.156945 -127.15839,126.68967 c -17.69699,7.13114 -25.70936,29.8504 -18.20804,46.9874 15.57516,51.14548 30.16148,102.64999 46.379756,153.56442 4.140739,7.21311 13.868811,6.41401 20.292418,3.06519 C 62.75006,287.29701 204.43982,244.9768 345.72592,201.51999 c 7.54738,-4.23198 6.52204,-14.4381 3.15346,-21.04564 -15.6078,-51.051 -29.98785,-102.519929 -46.39779,-153.299926 -7.08013,-15.03154 -25.6952,-23.4421132 -41.6106,-18.2469545 z m 1.36996,24.8998595 c 2.12938,4.475964 3.00417,12.511919 -3.83836,12.997416 C 137.65085,83.237062 17.037733,120.1897 -103.80482,156.25038 c -4.69646,-0.2577 -5.79555,-5.87212 -6.78515,-9.55169 z m 20.2242,5.876801 c 6.38431,22.841906 13.70627,45.462435 20.34286,68.2697 3.3839,11.50629 7.72885,25.42685 10.52171,35.44843 -4.7516,-10.06246 -16.90265,-15.44678 -27.58049,-12.1369 -121.89114,37.14896 -244.203986,73.57748 -366.032828,111.11925 -8.825497,4.05797 -13.669581,14.2193 -13.017102,23.66258 -10.26773,-34.2436 -20.76281,-68.4205 -30.55865,-102.80517 6.20689,10.74358 20.8495,14.80785 31.893662,9.27202 C 28.395791,135.91764 148.97725,99.956226 269.19594,62.912723 278.04518,58.815358 282.92899,48.601326 282.20191,39.110726 Z M -68.011955,257.78914 c 80.74955,-23.83481 161.220121,-48.72269 241.862835,-72.96082 39.70964,-11.80954 81.96804,-24.70159 121.76075,-36.01766 0.96433,3.89668 3.02391,11.27365 3.07129,12.50822 -119.77142,36.22855 -245.311566,72.98932 -365.111358,109.12296 1.001954,-2.82297 -1.95669,-11.16982 -1.583517,-12.6527 z m 5.869299,23.93368 c 43.439041,-12.59754 82.119463,-25.5044 125.48147,-38.43725 80.127076,-24.09591 159.841016,-48.07037 237.902476,-72.9364 1.49982,3.73098 3.39952,11.73883 3.39952,11.73883 -7.7995,4.44515 -242.785246,75.01067 -364.646066,111.94329 -0.461862,-2.92245 -3.51931,-12.28615 -2.1374,-12.30847 z"
         id="path4567-01-7"
         inkscape:connector-curvature="0"
         sodipodi:nodetypes="cccccccccccccccccccccccccccccccccccccc" />
    </g>
    <path
       style="display:inline;opacity:1;fill:#f9f9f9;fill-opacity:1;stroke-width:0.09354433"
       d="m 54.159214,288.33651 c -0.03437,-0.30957 -0.762902,-0.97524 -1.338848,-1.22334 -0.689457,-0.297 0.760315,-0.2773 -18.484709,-0.25115 -26.4090626,0.0359 -26.5049234,0.0365 -26.9861039,0.18736 -0.5583643,0.17503 -1.1245201,0.5987 -1.3868485,1.03783 -0.1131765,0.18943 -0.2207409,0.32988 -0.2390508,0.31212 -0.018269,-0.0177 -0.019807,-1.77762 -0.00427,-3.91078 0.015936,-2.13316 0.023538,-4.3415 0.016804,-4.9074 -0.011931,-0.99009 -0.00636,-1.01842 0.1376587,-0.75052 0.3516601,0.65324 1.1349158,1.15903 2.0246439,1.30738 0.2837157,0.0473 1.6523894,0.0744 3.0414456,0.0602 1.389087,-0.0139 6.67239,-0.0277 11.740711,-0.0301 5.068289,-0.002 12.646093,-0.0136 16.839519,-0.0249 4.193416,-0.0113 8.747333,-0.0167 10.1198,-0.012 2.71483,0.009 3.022913,-0.0332 3.728172,-0.51541 0.19918,-0.13616 0.483563,-0.42063 0.63197,-0.63214 l 0.269822,-0.38457 -0.0085,2.9318 c -0.0085,2.9371 -0.07088,7.0878 -0.102253,6.80553 z m -4.097328,-1.76492 c 0.639477,-0.31535 0.731463,-1.03785 0.188562,-1.48086 -0.747301,-0.60981 -1.957952,-0.19291 -1.944942,0.66977 0.01158,0.76761 0.958155,1.20473 1.75638,0.81109 z m -2.907224,-0.0732 c 0.414604,-0.26147 0.547483,-0.65319 0.364271,-1.07374 -0.19637,-0.45076 -0.617401,-0.6513 -1.22525,-0.58363 -0.37748,0.042 -0.519892,0.11058 -0.727671,0.3503 -0.361738,0.41734 -0.33888,0.78844 0.07313,1.18824 0.278537,0.27026 0.385042,0.31223 0.776443,0.30603 0.278675,-0.004 0.563709,-0.0766 0.739041,-0.18719 z m -4.667604,-0.21843 c 0.387519,-0.24437 0.475694,-0.60018 0.228334,-0.92127 -0.102233,-0.13271 -0.309799,-0.27283 -0.461258,-0.31138 -0.302616,-0.077 -6.209804,-0.0994 -19.607518,-0.0742 -8.280557,0.0156 -8.773612,0.0256 -9.006194,0.18303 -0.344393,0.23316 -0.476736,0.56626 -0.339752,0.85525 0.239258,0.50479 0.06035,0.49382 8.029021,0.49198 4.062987,-9.6e-4 9.450144,-0.001 11.971438,-8.3e-4 8.475888,0.002 8.844546,-0.007 9.185929,-0.22254 z"
       id="path5063"
       inkscape:connector-curvature="0" />
    <path
       style="display:inline;opacity:1;fill:#f9f9f9;fill-opacity:1;stroke-width:0.09354433"
       d="m 46.929218,278.24655 c -2.521368,-0.003 -10.562393,-0.002 -17.868959,0.003 -22.4124198,0.0152 -20.9145309,0.0271 -21.1146212,-0.16711 -0.1047038,-0.10159 -0.1762323,-0.30389 -0.1792959,-0.50703 l -0.0051,-0.338 3.6253581,0.007 c 4.85299,0.009 20.71202,-0.006 30.194408,-0.0295 4.219184,-0.0103 8.35559,-0.004 9.192008,0.0141 1.424377,0.0308 1.520934,0.0445 1.523501,0.21467 0.0063,0.41693 -0.431892,0.90642 -0.736036,0.82223 -0.0258,-0.007 -2.109918,-0.0158 -4.631265,-0.0192 z"
       id="path5065"
       inkscape:connector-curvature="0" />
    <path
       style="opacity:1;fill:#ccff00;fill-opacity:1;stroke:#d4fc8b;stroke-width:0.02446921;stroke-opacity:0.93939394"
       d="m 49.122319,286.65696 c -0.413101,-0.10059 -0.722267,-0.3835 -0.813968,-0.74482 -0.170731,-0.67275 0.624596,-1.28236 1.425566,-1.09268 0.343535,0.0814 0.648272,0.30505 0.778516,0.57148 0.05828,0.1192 0.06807,0.16924 0.06807,0.34769 0,0.17531 -0.0105,0.23097 -0.06601,0.34997 -0.209655,0.44943 -0.833927,0.7043 -1.392173,0.56836 z"
       id="path2007"
       inkscape:connector-curvature="0" />
  </g>
</svg>
