<?xml version="1.0" encoding="UTF-8" standalone="no"?>
<!-- Created with Inkscape (http://www.inkscape.org/) -->

<svg
   xmlns:dc="http://purl.org/dc/elements/1.1/"
   xmlns:cc="http://creativecommons.org/ns#"
   xmlns:rdf="http://www.w3.org/1999/02/22-rdf-syntax-ns#"
   xmlns:svg="http://www.w3.org/2000/svg"
   xmlns="http://www.w3.org/2000/svg"
   xmlns:xlink="http://www.w3.org/1999/xlink"
   xmlns:sodipodi="http://sodipodi.sourceforge.net/DTD/sodipodi-0.dtd"
   xmlns:inkscape="http://www.inkscape.org/namespaces/inkscape"
   width="1920"
   height="300"
   viewBox="0 0 508 327.42189"
   version="1.1"
   id="svg5675"
   inkscape:version="0.92.4 (5da689c313, 2019-01-14)"
   sodipodi:docname="background_part2.svg">
  <defs
     id="defs5669">
    <linearGradient
       id="linearGradient5306"
       inkscape:collect="always">
      <stop
         id="stop5300"
         offset="0"
         style="stop-color:#ffe27c;stop-opacity:1" />
      <stop
         style="stop-color:#d4fc8b;stop-opacity:1"
         offset="0.51075816"
         id="stop5302" />
      <stop
         id="stop5304"
         offset="1"
         style="stop-color:#fbfdff;stop-opacity:1" />
    </linearGradient>
    <linearGradient
       inkscape:collect="always"
       xlink:href="#linearGradient5306"
       id="linearGradient5430-0-9-1"
       gradientUnits="userSpaceOnUse"
       gradientTransform="matrix(3.7306245,-0.00826575,-0.01836887,1.647238,-596.20204,141.70957)"
       x1="100.9112"
       y1="143.98366"
       x2="396.73895"
       y2="146.46948" />
    <linearGradient
       inkscape:collect="always"
       xlink:href="#linearGradient5306"
       id="linearGradient6912"
       gradientUnits="userSpaceOnUse"
       gradientTransform="matrix(3.7306247,-0.00826575,-0.01836887,1.647238,-1189.5376,-1443.9365)"
       x1="100.9112"
       y1="143.98366"
       x2="396.73895"
       y2="146.46948" />
    <linearGradient
       inkscape:collect="always"
       xlink:href="#linearGradient5306"
       id="linearGradient5430-0-9-1-7"
       gradientUnits="userSpaceOnUse"
       gradientTransform="matrix(3.7619838,0.01038807,-0.01948121,3.3861125,-676.40031,-939.78521)"
       x1="100.9112"
       y1="143.98366"
       x2="396.73895"
       y2="146.46948" />
  </defs>
  <sodipodi:namedview
     id="base"
     pagecolor="#ffffff"
     bordercolor="#666666"
     borderopacity="1.0"
     inkscape:pageopacity="0.0"
     inkscape:pageshadow="2"
     inkscape:zoom="0.49497475"
     inkscape:cx="1111.8522"
     inkscape:cy="457.72002"
     inkscape:document-units="mm"
     inkscape:current-layer="layer1"
     showgrid="false"
     units="px"
     inkscape:window-width="1920"
     inkscape:window-height="1137"
     inkscape:window-x="-8"
     inkscape:window-y="-8"
     inkscape:window-maximized="1" />
  <metadata
     id="metadata5672">
    <rdf:RDF>
      <cc:Work
         rdf:about="">
        <dc:format>image/svg+xml</dc:format>
        <dc:type
           rdf:resource="http://purl.org/dc/dcmitype/StillImage" />
        <dc:title></dc:title>
      </cc:Work>
    </rdf:RDF>
  </metadata>
  <g
     inkscape:label="Layer 1"
     inkscape:groupmode="layer"
     id="layer1"
     transform="translate(0,30.421893)">
    <rect
       style="opacity:1;fill:#212529;fill-opacity:1;stroke:none;stroke-width:13.84153652;stroke-opacity:0.93939394"
       id="rect6940"
       width="2097.6265"
       height="85.587852"
       x="-794.62793"
       y="211.78693" />
    <rect
       style="opacity:1;fill:#000000;fill-opacity:1;stroke:#d4fc8b;stroke-width:1.09140635;stroke-opacity:0.93939394"
       id="rect6942"
       width="34.314903"
       height="17.088547"
       x="-115.44501"
       y="746.40118" />
    <path
       id="rect5149-7-0-1-1-3-8"
       style="fill:url(#linearGradient6912);fill-opacity:1;stroke-width:0.65588248"
       d="m 567.68089,-1312.458 c -3.951,0.055 -6.6247,1.313 -7.646,4.0224 -30.7708,81.6227 -47.5999,98.0462 -85.72679,145.1912 -56.96434,70.4385 -68.62994,75.3404 -75.12163,75.0917 -1469.27317,-56.2773 -1222.8122,178.76498 -1609.70687,33.3284 -29.513,-11.0942 -62.7109,-24.4019 -100.6375,-40.2222 l -2.7413,245.83499 2099.08109,-4.65121 -1.4496,-336.01038 c -23.852,-12.2558 -59.4959,-22.1333 -99.5181,-56.5399 -36.6288,-31.4894 -95.198,-66.3392 -116.5333,-66.045 z"
       inkscape:connector-curvature="0" />
    <path
       id="rect5149-7-0-1-1-3-8-0"
       style="fill:url(#linearGradient5430-0-9-1-7);fill-opacity:1;stroke-width:0.94433272"
       d="m 1095.5105,-656.60665 c -3.9842,0.0829 -6.6813,2.65063 -7.7125,8.21292 -31.077,167.56684 -48.0572,201.20532 -86.5317,297.84198 -57.4841,144.38325 -69.25081,154.37459 -75.7966,153.81562 -1481.58935,-126.47318 -1233.19361,358.51496 -1623.25546,56.6995 -29.75458,-23.02295 -63.22364,-50.62343 -101.4598,-83.42373 l -2.90735,505.3458 2116.72581,5.84411 -1.2665,-690.75111 c -24.0453,-25.36951 -59.983,-45.93634 -100.3216,-116.96031 -36.9184,-65.00192 -95.9596,-137.07283 -117.4743,-136.62478 z"
       inkscape:connector-curvature="0" />
  </g>
</svg>
